2019-03-25 16:07:41 INFO edu.baylor.ecs.si.Timer <clinit> starting the app
2019-03-25 16:07:41 INFO edu.baylor.ecs.si.Timer timeMe Calling took: 0
2019-03-25 16:07:41 INFO edu.baylor.ecs.si.Timer timeMe * should take: 0
2019-03-25 16:07:41 FINER org.junit.jupiter.engine.execution.ConditionEvaluator logResult Evaluation of condition [org.junit.jupiter.engine.extension.DisabledCondition] resulted in: ConditionEvaluationResult [enabled = true, reason = '@Disabled is not present']
2019-03-25 16:07:41 FINER org.junit.jupiter.engine.execution.ConditionEvaluator logResult Evaluation of condition [org.junit.jupiter.engine.extension.ScriptExecutionCondition] resulted in: ConditionEvaluationResult [enabled = true, reason = 'Annotation not present']
2019-03-25 16:07:41 FINER org.junit.jupiter.engine.execution.ConditionEvaluator logResult Evaluation of condition [org.junit.jupiter.engine.extension.DisabledCondition] resulted in: ConditionEvaluationResult [enabled = true, reason = '@Disabled is not present']
2019-03-25 16:07:41 FINER org.junit.jupiter.engine.execution.ConditionEvaluator logResult Evaluation of condition [org.junit.jupiter.engine.extension.ScriptExecutionCondition] resulted in: ConditionEvaluationResult [enabled = true, reason = 'Annotation not present']
2019-03-25 16:07:42 INFO edu.baylor.ecs.si.Timer timeMe Calling took: 1001
2019-03-25 16:07:42 INFO edu.baylor.ecs.si.Timer timeMe * should take: 1000
